block_identifier,type_code,theme_path,title,page_group,group_data
footer_links_seller_block,cms_static_block,frontend/Webkul/xtremo,Footer Links Seller,all_pages,"a:1:{s:5:""block"";s:26:""cms_footer_links_container"";}"
footer_links_queries_block,cms_static_block,frontend/Webkul/xtremo,Footer Links Queries,all_pages,"a:1:{s:5:""block"";s:26:""cms_footer_links_container"";}"
xtremo_homepage_block,cms_static_block,frontend/Webkul/xtremo,Home Page Xtremo,pages,"a:2:{s:5:""block"";s:7:""content"";s:13:""layout_handle"";s:15:""cms_index_index"";}"
footer_links_seller_block,cms_static_block,frontend/Webkul/xtremoRTL,Footer Links Seller RTL,all_pages,"a:1:{s:5:""block"";s:26:""cms_footer_links_container"";}"
footer_links_queries_block,cms_static_block,frontend/Webkul/xtremoRTL,Footer Links Queries RTL,all_pages,"a:1:{s:5:""block"";s:26:""cms_footer_links_container"";}"
xtremo_homepage_block,cms_static_block,frontend/Webkul/xtremoRTL,Home Page Xtremo RTL,pages,"a:2:{s:5:""block"";s:7:""content"";s:13:""layout_handle"";s:15:""cms_index_index"";}"
