{
    "wk_expdd_configs": {
        "column": {
            "entity_id": true,
            "status": true,
            "seller_id": true,
            "weekends": true,
            "holidays": true,
            "text_for_range": true,
            "text_for_specific": true,
            "text_for_not_available": true,
            "created_at": true,
            "updated_at": true
        },
        "constraint": {
            "PRIMARY": true
        }
    },
    "wk_expdd_rules": {
        "column": {
            "entity_id": true,
            "status": true,
            "seller_id": true,
            "name": true,
            "description": true,
            "estimation_type": true,
            "delivery_type": true,
            "days_from": true,
            "days_to": true,
            "created_at": true,
            "updated_at": true
        },
        "constraint": {
            "PRIMARY": true
        }
    },
    "wk_expdd_regions": {
        "column": {
            "entity_id": true,
            "status": true,
            "seller_id": true,
            "name": true,
            "rule_id": true,
            "country": true,
            "created_at": true,
            "updated_at": true
        },
        "constraint": {
            "PRIMARY": true
        }
    },
    "wk_expdd_region_zipcodes": {
        "column": {
            "entity_id": true,
            "seller_id": true,
            "region_id": true,
            "zip_from": true,
            "zip_to": true,
            "created_at": true,
            "updated_at": true
        },
        "constraint": {
            "PRIMARY": true
        }
    }
}